Chapter 1 Visualization | BioinfoHub
…
# with negative values

barData <- readRDS(file='data/dataForBarPlot_Negative.rds')

dataForBarPlot <- barData %>% group_by(Subtype) %>% summarise(expr=mean(Exprs), sd=sd(Exprs))
dataForBarPlot

## # A tibble: 53 x 3
##    Subtype                                   expr    sd
##    <chr>                                    <dbl> <dbl>
##  1 Adipose - Subcutaneous                   3.03   1.29
##  2 Adipose - Visceral (Omentum)             4.00   1.75
##  3 Adrenal Gland                            2.53   1.17
##  4 Artery - Aorta                           3.53   1.42
##  5 Artery - Coronary                        3.46   1.57
##  6 Artery - Tibial                          2.48   1.27
##  7 Bladder                                  2.48   1.09
##  8 Brain - Amygdala                         0.909  1.80
##  9 Brain - Anterior cingulate cortex (BA24) 0.488  1.59
## 10 Brain - Caudate (basal ganglia)          1.08   1.65
## # … with 43 more rows
…
